-- Merging decision tree log ---
manifest
ADDED from /Users/gilzako/rn=pjt/billboard_top100_rn_hermes_nover/node_modules/react-native-youtube/android/src/main/AndroidManifest.xml:1:1-4:12
INJECTED from /Users/gilzako/rn=pjt/billboard_top100_rn_hermes_nover/node_modules/react-native-youtube/android/src/main/AndroidManifest.xml:1:1-4:12
INJECTED from /Users/gilzako/rn=pjt/billboard_top100_rn_hermes_nover/node_modules/react-native-youtube/android/src/main/AndroidManifest.xml:1:1-4:12
INJECTED from /Users/gilzako/rn=pjt/billboard_top100_rn_hermes_nover/node_modules/react-native-youtube/android/src/main/AndroidManifest.xml:1:1-4:12
INJECTED from /Users/gilzako/rn=pjt/billboard_top100_rn_hermes_nover/node_modules/react-native-youtube/android/src/main/AndroidManifest.xml:1:1-4:12
INJECTED from /Users/gilzako/rn=pjt/billboard_top100_rn_hermes_nover/node_modules/react-native-youtube/android/src/main/AndroidManifest.xml:1:1-4:12
INJECTED from /Users/gilzako/rn=pjt/billboard_top100_rn_hermes_nover/node_modules/react-native-youtube/android/src/main/AndroidManifest.xml:1:1-4:12
	package
		ADDED from /Users/gilzako/rn=pjt/billboard_top100_rn_hermes_nover/node_modules/react-native-youtube/android/src/main/AndroidManifest.xml:2:5-48
		INJECTED from /Users/gilzako/rn=pjt/billboard_top100_rn_hermes_nover/node_modules/react-native-youtube/android/src/main/AndroidManifest.xml
		INJECTED from /Users/gilzako/rn=pjt/billboard_top100_rn_hermes_nover/node_modules/react-native-youtube/android/src/main/AndroidManifest.xml
	android:versionName
		INJECTED from /Users/gilzako/rn=pjt/billboard_top100_rn_hermes_nover/node_modules/react-native-youtube/android/src/main/AndroidManifest.xml
		ADDED from /Users/gilzako/rn=pjt/billboard_top100_rn_hermes_nover/node_modules/react-native-youtube/android/src/main/AndroidManifest.xml:1:1-4:12
		INJECTED from /Users/gilzako/rn=pjt/billboard_top100_rn_hermes_nover/node_modules/react-native-youtube/android/src/main/AndroidManifest.xml
	android:versionCode
		INJECTED from /Users/gilzako/rn=pjt/billboard_top100_rn_hermes_nover/node_modules/react-native-youtube/android/src/main/AndroidManifest.xml
		ADDED from /Users/gilzako/rn=pjt/billboard_top100_rn_hermes_nover/node_modules/react-native-youtube/android/src/main/AndroidManifest.xml:1:1-4:12
		INJECTED from /Users/gilzako/rn=pjt/billboard_top100_rn_hermes_nover/node_modules/react-native-youtube/android/src/main/AndroidManifest.xml
	xmlns:android
		ADDED from /Users/gilzako/rn=pjt/billboard_top100_rn_hermes_nover/node_modules/react-native-youtube/android/src/main/AndroidManifest.xml:1:11-69
uses-sdk
INJECTED from /Users/gilzako/rn=pjt/billboard_top100_rn_hermes_nover/node_modules/react-native-youtube/android/src/main/AndroidManifest.xml reason: use-sdk injection requested
INJECTED from /Users/gilzako/rn=pjt/billboard_top100_rn_hermes_nover/node_modules/react-native-youtube/android/src/main/AndroidManifest.xml
INJECTED from /Users/gilzako/rn=pjt/billboard_top100_rn_hermes_nover/node_modules/react-native-youtube/android/src/main/AndroidManifest.xml
INJECTED from /Users/gilzako/rn=pjt/billboard_top100_rn_hermes_nover/node_modules/react-native-youtube/android/src/main/AndroidManifest.xml
INJECTED from /Users/gilzako/rn=pjt/billboard_top100_rn_hermes_nover/node_modules/react-native-youtube/android/src/main/AndroidManifest.xml
	android:targetSdkVersion
		INJECTED from /Users/gilzako/rn=pjt/billboard_top100_rn_hermes_nover/node_modules/react-native-youtube/android/src/main/AndroidManifest.xml
		ADDED from /Users/gilzako/rn=pjt/billboard_top100_rn_hermes_nover/node_modules/react-native-youtube/android/src/main/AndroidManifest.xml
		INJECTED from /Users/gilzako/rn=pjt/billboard_top100_rn_hermes_nover/node_modules/react-native-youtube/android/src/main/AndroidManifest.xml
	android:minSdkVersion
		INJECTED from /Users/gilzako/rn=pjt/billboard_top100_rn_hermes_nover/node_modules/react-native-youtube/android/src/main/AndroidManifest.xml
		ADDED from /Users/gilzako/rn=pjt/billboard_top100_rn_hermes_nover/node_modules/react-native-youtube/android/src/main/AndroidManifest.xml
		INJECTED from /Users/gilzako/rn=pjt/billboard_top100_rn_hermes_nover/node_modules/react-native-youtube/android/src/main/AndroidManifest.xml
